{
  "project_info": {
    "project_number": "1006499468036",
    "firebase_url": "https://abh-demo.firebaseio.com",
    "project_id": "abh-demo",
    "storage_bucket": "abh-demo.appspot.com"
  },
  "client": [
    {
      "client_info": {
        "mobilesdk_app_id": "1:1006499468036:android:6c5d70abfd2a5b67",
        "android_client_info": {
          "package_name": "com.icebirdsoftware.abh"
        }
      },
      "oauth_client": [
        {
          "client_id": "1006499468036-sd3f80upsmjunun4k2nb615rivfatr0t.apps.googleusercontent.com",
          "client_type": 3
        }
      ],
      "api_key": [
        {
          "current_key": "AIzaSyDeJoZvnLxgTngtKDLiJREYFPRy99tbvZ0"
        }
      ],
      "services": {
        "analytics_service": {
          "status": 1
        },
        "appinvite_service": {
          "status": 1,
          "other_platform_oauth_client": []
        },
        "ads_service": {
          "status": 2
        }
      }
    }
  ],
  "configuration_version": "1"
}